{
  "globalDependencies": {
    "core-js": "registry:dt/core-js#0.0.0+20160725163759",
    "matter-js": "registry:dt/matter-js#0.9.1+20160317120654",
    "pixi.js": "registry:dt/pixi.js#3.0.9+20160705114540"
  }
}
